<?xml version="1.0" encoding="UTF-8" standalone="no"?>
<!DOCTYPE svg PUBLIC "-//W3C//DTD SVG 1.1//EN" "http://www.w3.org/Graphics/SVG/1.1/DTD/svg11.dtd">
<svg width="100%" height="100%" viewBox="0 0 82 113" version="1.1" xmlns="http://www.w3.org/2000/svg" xmlns:xlink="http://www.w3.org/1999/xlink" xml:space="preserve" xmlns:serif="http://www.serif.com/" style="fill-rule:evenodd;clip-rule:evenodd;stroke-linejoin:round;stroke-miterlimit:2;">
    <g id="Ubicacion-Meta" serif:id="Ubicacion Meta" transform="matrix(1.5594,0,0,1.5594,-3363.05,-466.658)">
        <g>
            <g transform="matrix(1.79791,0,0,1.79791,2109.94,-285.039)">
                <path d="M54.954,339.479C54.954,347.482 48.465,353.971 40.461,353.971C32.458,353.971 25.967,347.482 25.967,339.479C25.967,331.474 32.458,324.984 40.461,324.984C48.465,324.984 54.954,331.474 54.954,339.479Z" style="fill:rgb(192,70,75);fill-rule:nonzero;"/>
            </g>
            <g transform="matrix(1.79791,0,0,1.79791,2109.94,-285.039)">
                <path d="M40.461,365.082L28.936,348.237L51.985,348.237L40.461,365.082Z" style="fill:rgb(192,70,75);fill-rule:nonzero;"/>
            </g>
        </g>
        <g transform="matrix(1.79791,0,0,1.79791,2109.94,-285.039)">
            <path d="M49.668,339.479C49.668,344.563 45.545,348.686 40.461,348.686C35.376,348.686 31.254,344.563 31.254,339.479C31.254,334.393 35.376,330.271 40.461,330.271C45.545,330.271 49.668,334.393 49.668,339.479Z" style="fill:white;fill-rule:nonzero;"/>
        </g>
        <g transform="matrix(0.916269,0,0,0.916269,-271.519,-402.425)">
            <rect x="2660" y="785" width="9.244" height="9.244" style="fill:rgb(192,70,75);"/>
        </g>
        <g transform="matrix(0.916269,0,0,0.916269,-263.049,-410.895)">
            <rect x="2660" y="785" width="9.244" height="9.244" style="fill:rgb(192,70,75);"/>
        </g>
        <g transform="matrix(0.916269,0,0,0.916269,-263.049,-393.979)">
            <rect x="2660" y="785" width="9.244" height="9.244" style="fill:rgb(192,70,75);"/>
        </g>
        <g transform="matrix(0.916269,0,0,0.916269,-254.617,-385.485)">
            <rect x="2660" y="785" width="9.244" height="9.244" style="fill:rgb(192,70,75);"/>
        </g>
        <g transform="matrix(0.916269,0,0,0.916269,-246.147,-410.895)">
            <rect x="2660" y="785" width="9.244" height="9.244" style="fill:rgb(192,70,75);"/>
        </g>
        <g transform="matrix(0.916269,0,0,0.916269,-246.147,-393.955)">
            <rect x="2660" y="785" width="9.244" height="9.244" style="fill:rgb(192,70,75);"/>
        </g>
        <g transform="matrix(0.916269,0,0,0.916269,-271.519,-385.509)">
            <rect x="2660" y="785" width="9.244" height="9.244" style="fill:rgb(192,70,75);"/>
        </g>
        <g transform="matrix(0.916269,0,0,0.916269,-254.617,-402.425)">
            <rect x="2660" y="785" width="9.244" height="9.244" style="fill:rgb(192,70,75);"/>
        </g>
    </g>
</svg>
